{"frames": [
{"name":"48","position":"0, 4"},
{"name":"49","position":"30, 4"},
{"name":"50","position":"58, 4"},
{"name":"51","position":"86, 4"},
{"name":"52","position":"114, 4"},
{"name":"53","position":"145, 4"},
{"name":"54","position":"174, 0"},
{"name":"55","position":"202, 4"},
{"name":"56","position":"230, 4"},
{"name":"57","position":"259, 4"}
]}
